objet|mots
Assurer l'instruction, la formation professionnelle, l'insertion et la promotion des personnes Sourdes, Aveugles et Sourdes-Aveugles.|assurer_v l_n instruction_n formation_n professionnel_a insertion_n promotion_n personne_n sourdes_a aveugles_n sourdes-aveugles_n

